sim/proj.vcd
$date
	Fri May  9 21:46:44 2025
$end

$version
	Synopsys VCS version U-2023.03-SP2-8
$end

$timescale
	10ps
$end

$comment Csum: 1 0adf1965eeeecb39 $end


$scope module uvm_pkg $end
$var reg 32 ! UVM_UNBOUNDED_CONNECTIONS [31:0] $end
$var reg 1 " uvm_start_uvm_declarations $end
$var reg 32 # uvm_global_random_seed [31:0] $end
$upscope $end


$scope module $unit $end
$upscope $end


$scope module test_pkg $end
$upscope $end


$scope module top $end
$var reg 1 $ clk $end

$scope begin unnamed$$_vcs_1 $end
$upscope $end


$scope begin unnamed$$_vcs_0 $end
$upscope $end


$scope begin unnamed$$_vcs_2 $end
$upscope $end


$scope module intf $end
$var reg 1 % PCLK $end
$var reg 1 & PRESET $end
$var reg 5 ' PADDR [4:0] $end
$var reg 1 ( PSEL $end
$var reg 1 ) PENABLE $end
$var reg 1 * PWRITE $end
$var reg 32 + PWDATA [31:0] $end
$var reg 1 , PREADY $end
$var reg 32 - PRDATA [31:0] $end
$var reg 1 . PSLVERR $end
$var reg 1 / Interrupt $end
$var reg 1 0 SCL_drive $end
$var reg 1 1 SCL_result $end
$var reg 1 2 SDA_drive $end
$var reg 1 3 SDA_result $end
$upscope $end


$scope module DUT $end
$upscope $end

$upscope $end

$enddefinitions $end

#0
$dumpvars
1"
b11111111111111111111111111111111 !
b01000010000001111100110001000111 #
0$
bxxxxxxxxxxxxxxxxxxxxxxxxxxxxxxxx -
bxxxxxxxxxxxxxxxxxxxxxxxxxxxxxxxx +
bxxxxx '
0%
x/
x)
x,
x&
x(
x.
x*
x0
x1
x2
x3
$end
#500
1$
1%
#501
1&
b00000 '
0(
0)
0*
b00000000000000000000000000000000 +
01
03
1,
b00000000000000000000000000000000 -
0.
0/
10
12
#600
x/
x0
x2
#1000
0$
0%
#1500
1$
1%
0/
10
12
#1501
0&
#2000
0$
0%
#2500
1$
1%
#2501
1&
#3000
0$
0%
#3500
1$
1%
#3501
1(
#4000
0$
0%
#4500
1$
1%
#4501
b00100 '
1)
1*
#5000
0$
0%
#5500
1$
1%
#5501
0)
#6000
0$
0%
#6500
1$
1%
#6501
b01000 '
1)
b00000000000000000000000011110000 +
#7000
0$
0%
#7500
1$
1%
#7501
0)
