sim/proj.vcd
$date
	Mon May 12 21:20:24 2025
$end

$version
	Synopsys VCS version U-2023.03-SP2-8
$end

$timescale
	10ps
$end

$comment Csum: 1 0adf1965eeeecb39 $end


$scope module uvm_pkg $end
$var reg 32 ! UVM_UNBOUNDED_CONNECTIONS [31:0] $end
$var reg 1 " uvm_start_uvm_declarations $end
$var reg 32 # uvm_global_random_seed [31:0] $end
$upscope $end


$scope module $unit $end
$upscope $end


$scope module test_pkg $end
$upscope $end


$scope module top $end
$var reg 1 $ clk $end

$scope begin unnamed$$_vcs_1 $end
$upscope $end


$scope begin unnamed$$_vcs_0 $end
$upscope $end


$scope begin unnamed$$_vcs_2 $end
$upscope $end


$scope module intf $end
$var reg 1 % PCLK $end
$var reg 1 & PRESET $end
$var reg 5 ' PADDR [4:0] $end
$var reg 1 ( PSEL $end
$var reg 1 ) PENABLE $end
$var reg 1 * PWRITE $end
$var reg 32 + PWDATA [31:0] $end
$var reg 1 , PREADY $end
$var reg 32 - PRDATA [31:0] $end
$var reg 1 . PSLVERR $end
$var reg 1 / Interrupt $end
$var reg 1 0 SCL_drive $end
$var reg 1 1 SCL_result $end
$var reg 1 2 SDA_drive $end
$var reg 1 3 SDA_result $end
$upscope $end


$scope module DUT $end
$upscope $end

$upscope $end

$enddefinitions $end

#0
$dumpvars
1"
b11111111111111111111111111111111 !
b01000010000001111100110001000111 #
0$
bxxxxxxxxxxxxxxxxxxxxxxxxxxxxxxxx -
bxxxxxxxxxxxxxxxxxxxxxxxxxxxxxxxx +
bxxxxx '
0%
x/
x)
x,
x&
x(
x.
x*
x0
x1
x2
x3
$end
#500
1$
1%
#501
b00000 '
1(
0)
0*
b00000000000000000000000000000000 +
0&
01
03
1,
b00000000000000000000000000000000 -
0.
#1000
0$
0%
#1500
1$
1%
#1501
1)
b000000000000000000000000xxxxxxxx -
#2000
0$
0%
#2500
1$
1%
#2501
0(
0)
b00000000000000000000000000000000 -
#3000
0$
0%
#3500
1$
1%
#3501
1(
1&
11
13
0/
10
12
#4000
0$
0%
#4500
1$
1%
#4501
1)
#5000
0$
0%
#5500
1$
1%
#5501
0(
0)
#6000
0$
0%
#6500
1$
1%
#6501
1(
0&
#7000
0$
0%
#7500
1$
1%
#7501
1)
#8000
0$
0%
#8500
1$
1%
#8501
0(
0)
#9000
0$
0%
#9500
1$
1%
#9501
b00100 '
1(
1*
01
03
#10000
0$
0%
#10500
1$
1%
#10501
1)
#11000
0$
0%
#11500
1$
1%
#11501
0(
0)
#12000
0$
0%
#12500
1$
1%
#12501
b01000 '
1(
b00000000000000000000000011000000 +
#13000
0$
0%
#13500
1$
1%
#13501
1)
#14000
0$
0%
#14500
1$
1%
#14501
0(
0)
#15000
0$
0%
#15500
1$
1%
#15501
b00000 '
1(
b00000000000000000000000011111110 +
#16000
0$
0%
#16500
1$
1%
#16501
1)
#17000
0$
0%
#17500
1$
1%
#17501
0(
0)
#18000
0$
0%
#18500
1$
1%
#18501
b01000 '
1(
b00000000000000000000000010110000 +
#19000
0$
0%
#19500
1$
1%
#19501
1)
#20000
0$
0%
#20500
1$
1%
#20501
0(
0)
#21000
0$
0%
#21500
1$
1%
#21501
b10000 '
1(
b00000000000000000000000011110000 +
11
13
#22000
0$
0%
#22500
1$
1%
#22501
1)
#23000
0$
0%
#23500
1$
1%
#23501
0(
0)
#24000
0$
0%
#24500
1$
1%
#24501
b00000 '
1(
0*
b00000000000000000000000000000000 +
#25000
0$
0%
#25500
1$
1%
#25501
1)
b00000000000000000000000011111110 -
#26000
0$
0%
#26500
1$
1%
#26501
0(
0)
b00000000000000000000000000000000 -
#27000
0$
0%
#27500
1$
1%
#27501
1(
#28000
0$
0%
#28500
1$
1%
#28501
1)
b00000000000000000000000011111110 -
#29000
0$
0%
#29500
1$
1%
#29501
0(
0)
b00000000000000000000000000000000 -
#30000
0$
0%
#30500
1$
1%
#30501
1(
#31000
0$
0%
#31500
1$
1%
#31501
1)
b00000000000000000000000011111110 -
#32000
0$
0%
#32500
1$
1%
#32501
0(
0)
b00000000000000000000000000000000 -
#33000
0$
0%
#33500
1$
1%
#33501
1(
#34000
0$
0%
#34500
1$
1%
#34501
1)
b00000000000000000000000011111110 -
#35000
0$
0%
#35500
1$
1%
#35501
0(
0)
b00000000000000000000000000000000 -
#36000
0$
0%
#36500
1$
1%
#36501
1(
#37000
0$
0%
#37500
1$
1%
#37501
1)
b00000000000000000000000011111110 -
#37600
02
#38000
0$
0%
#38500
1$
1%
#38501
0(
0)
b00000000000000000000000000000000 -
#39000
0$
0%
#39500
1$
1%
#39501
1(
#40000
0$
0%
#40500
1$
1%
#40501
1)
b00000000000000000000000011111110 -
#41000
0$
0%
#41500
1$
1%
#41501
0(
0)
b00000000000000000000000000000000 -
#42000
0$
0%
#42500
1$
1%
#42501
1(
#43000
0$
0%
#43500
1$
1%
#43501
1)
b00000000000000000000000011111110 -
#44000
0$
0%
#44500
1$
1%
#44501
0(
0)
b00000000000000000000000000000000 -
#44600
00
#45000
0$
0%
#45500
1$
1%
#45501
1(
#46000
0$
0%
#46500
1$
1%
#46501
1)
b00000000000000000000000011111110 -
#47000
0$
0%
#47500
1$
1%
#47501
0(
0)
b00000000000000000000000000000000 -
#48000
0$
0%
#48500
1$
1%
#48501
1(
#49000
0$
0%
#49500
1$
1%
#49501
1)
b00000000000000000000000011111110 -
#50000
0$
0%
#50500
1$
1%
#50501
0(
0)
b00000000000000000000000000000000 -
#51000
0$
0%
#51500
1$
1%
#51501
1(
#52000
0$
0%
#52500
1$
1%
#52501
1)
b00000000000000000000000011111110 -
#53000
0$
0%
#53500
1$
1%
#53501
0(
0)
b00000000000000000000000000000000 -
#53600
12
#54000
0$
0%
#54500
1$
1%
#54501
1(
#55000
0$
0%
#55500
1$
1%
#55501
1)
b00000000000000000000000011111110 -
#56000
0$
0%
#56500
1$
1%
#56501
0(
0)
b00000000000000000000000000000000 -
#57000
0$
0%
#57500
1$
1%
#57501
1(
#58000
0$
0%
#58500
1$
1%
#58501
1)
b00000000000000000000000011111110 -
#59000
0$
0%
#59500
1$
1%
#59501
0(
0)
b00000000000000000000000000000000 -
#59600
10
#60000
0$
0%
#60500
1$
1%
#60501
1(
#61000
0$
0%
#61500
1$
1%
#61501
1)
b00000000000000000000000011111110 -
#62000
0$
0%
#62500
1$
1%
#62501
0(
0)
b00000000000000000000000000000000 -
#63000
0$
0%
#63500
1$
1%
#63501
1(
#64000
0$
0%
#64500
1$
1%
#64501
1)
b00000000000000000000000011111110 -
#65000
0$
0%
#65500
1$
1%
#65501
0(
0)
b00000000000000000000000000000000 -
#66000
0$
0%
#66500
1$
1%
#66501
1(
#67000
0$
0%
#67500
1$
1%
#67501
1)
b00000000000000000000000011111110 -
#68000
0$
0%
#68500
1$
1%
#68501
0(
0)
b00000000000000000000000000000000 -
#69000
0$
0%
#69500
1$
1%
#69501
1(
#70000
0$
0%
#70500
1$
1%
#70501
1)
b00000000000000000000000011111110 -
#71000
0$
0%
#71500
1$
1%
#71501
0(
0)
b00000000000000000000000000000000 -
#72000
0$
0%
#72500
1$
1%
#72501
1(
#73000
0$
0%
#73500
1$
1%
#73501
1)
b00000000000000000000000011111110 -
#74000
0$
0%
#74500
1$
1%
#74501
0(
0)
b00000000000000000000000000000000 -
#75000
0$
0%
#75500
1$
1%
#75501
1(
#75600
00
#76000
0$
0%
#76500
1$
1%
#76501
1)
b00000000000000000000000011111110 -
#77000
0$
0%
#77500
1$
1%
#77501
0(
0)
b00000000000000000000000000000000 -
#78000
0$
0%
#78500
1$
1%
#78501
1(
#79000
0$
0%
#79500
1$
1%
#79501
1)
b00000000000000000000000011111110 -
#80000
0$
0%
#80500
1$
1%
#80501
0(
0)
b00000000000000000000000000000000 -
#81000
0$
0%
#81500
1$
1%
#81501
1(
#82000
0$
0%
#82500
1$
1%
#82501
1)
b00000000000000000000000011111110 -
#83000
0$
0%
#83500
1$
1%
#83501
0(
0)
b00000000000000000000000000000000 -
#84000
0$
0%
#84500
1$
1%
#84501
1(
#85000
0$
0%
#85500
1$
1%
#85501
1)
b00000000000000000000000011111110 -
#86000
0$
0%
#86500
1$
1%
#86501
0(
0)
b00000000000000000000000000000000 -
#87000
0$
0%
#87500
1$
1%
#87501
1(
#88000
0$
0%
#88500
1$
1%
#88501
1)
b00000000000000000000000011111110 -
#89000
0$
0%
#89500
1$
1%
#89501
0(
0)
b00000000000000000000000000000000 -
#89600
10
#90000
0$
0%
#90500
1$
1%
#90501
1(
#91000
0$
0%
#91500
1$
1%
#91501
1)
b00000000000000000000000011111110 -
#92000
0$
0%
#92500
1$
1%
#92501
0(
0)
b00000000000000000000000000000000 -
#93000
0$
0%
#93500
1$
1%
#93501
1(
#94000
0$
0%
#94500
1$
1%
#94501
1)
b00000000000000000000000011111110 -
#95000
0$
0%
#95500
1$
1%
#95501
0(
0)
b00000000000000000000000000000000 -
#96000
0$
0%
#96500
1$
1%
#96501
1(
#97000
0$
0%
#97500
1$
1%
#97501
1)
b00000000000000000000000011111110 -
#98000
0$
0%
#98500
1$
1%
#98501
0(
0)
b00000000000000000000000000000000 -
#99000
0$
0%
#99500
1$
1%
#99501
1(
#100000
0$
0%
#100500
1$
1%
#100501
1)
b00000000000000000000000011111110 -
#101000
0$
0%
#101500
1$
1%
#101501
0(
0)
b00000000000000000000000000000000 -
#102000
0$
0%
#102500
1$
1%
#102501
1(
#103000
0$
0%
#103500
1$
1%
#103501
1)
b00000000000000000000000011111110 -
#104000
0$
0%
#104500
1$
1%
#104501
0(
0)
b00000000000000000000000000000000 -
#105000
0$
0%
#105500
1$
1%
#105501
1(
#105600
00
#106000
0$
0%
#106500
1$
1%
#106501
1)
b00000000000000000000000011111110 -
#107000
0$
0%
#107500
1$
1%
#107501
0(
0)
b00000000000000000000000000000000 -
#108000
0$
0%
#108500
1$
1%
#108501
1(
#109000
0$
0%
#109500
1$
1%
#109501
1)
b00000000000000000000000011111110 -
#110000
0$
0%
#110500
1$
1%
#110501
0(
0)
b00000000000000000000000000000000 -
#111000
0$
0%
#111500
1$
1%
#111501
1(
#112000
0$
0%
#112500
1$
1%
#112501
1)
b00000000000000000000000011111110 -
#113000
0$
0%
#113500
1$
1%
#113501
0(
0)
b00000000000000000000000000000000 -
#114000
0$
0%
#114500
1$
1%
#114501
1(
#115000
0$
0%
#115500
1$
1%
#115501
1)
b00000000000000000000000011111110 -
#116000
0$
0%
#116500
1$
1%
#116501
0(
0)
b00000000000000000000000000000000 -
#117000
0$
0%
#117500
1$
1%
#117501
1(
#118000
0$
0%
#118500
1$
1%
#118501
1)
b00000000000000000000000011111110 -
#119000
0$
0%
#119500
1$
1%
#119501
0(
0)
b00000000000000000000000000000000 -
#119600
10
#120000
0$
0%
#120500
1$
1%
#120501
1(
#121000
0$
0%
#121500
1$
1%
#121501
1)
b00000000000000000000000011111110 -
#122000
0$
0%
#122500
1$
1%
#122501
0(
0)
b00000000000000000000000000000000 -
#123000
0$
0%
#123500
1$
1%
#123501
1(
#124000
0$
0%
#124500
1$
1%
#124501
1)
b00000000000000000000000011111110 -
#125000
0$
0%
#125500
1$
1%
#125501
0(
0)
b00000000000000000000000000000000 -
#126000
0$
0%
#126500
1$
1%
#126501
1(
#127000
0$
0%
#127500
1$
1%
#127501
1)
b00000000000000000000000011111110 -
#128000
0$
0%
#128500
1$
1%
#128501
0(
0)
b00000000000000000000000000000000 -
#129000
0$
0%
#129500
1$
1%
#129501
1(
#130000
0$
0%
#130500
1$
1%
#130501
1)
b00000000000000000000000011111110 -
#131000
0$
0%
#131500
1$
1%
#131501
0(
0)
b00000000000000000000000000000000 -
#132000
0$
0%
#132500
1$
1%
#132501
1(
#133000
0$
0%
#133500
1$
1%
#133501
1)
b00000000000000000000000011111110 -
#134000
0$
0%
#134500
1$
1%
#134501
0(
0)
b00000000000000000000000000000000 -
#135000
0$
0%
#135500
1$
1%
#135501
1(
#135600
00
#136000
0$
0%
#136500
1$
1%
#136501
1)
b00000000000000000000000011111110 -
#137000
0$
0%
#137500
1$
1%
#137501
0(
0)
b00000000000000000000000000000000 -
#138000
0$
0%
#138500
1$
1%
#138501
1(
#139000
0$
0%
#139500
1$
1%
#139501
1)
b00000000000000000000000011111110 -
#140000
0$
0%
#140500
1$
1%
#140501
0(
0)
b00000000000000000000000000000000 -
#141000
0$
0%
#141500
1$
1%
#141501
1(
#142000
0$
0%
#142500
1$
1%
#142501
1)
b00000000000000000000000011111110 -
#143000
0$
0%
#143500
1$
1%
#143501
0(
0)
b00000000000000000000000000000000 -
#144000
0$
0%
#144500
1$
1%
#144501
1(
#145000
0$
0%
#145500
1$
1%
#145501
1)
b00000000000000000000000011111110 -
#146000
0$
0%
#146500
1$
1%
#146501
0(
0)
b00000000000000000000000000000000 -
#147000
0$
0%
#147500
1$
1%
#147501
1(
#148000
0$
0%
#148500
1$
1%
#148501
1)
b00000000000000000000000011111110 -
#149000
0$
0%
#149500
1$
1%
#149501
0(
0)
b00000000000000000000000000000000 -
#149600
10
#150000
0$
0%
#150500
1$
1%
#150501
1(
#151000
0$
0%
#151500
1$
1%
#151501
1)
b00000000000000000000000011111110 -
#152000
0$
0%
#152500
1$
1%
#152501
0(
0)
b00000000000000000000000000000000 -
#153000
0$
0%
#153500
1$
1%
#153501
1(
#154000
0$
0%
#154500
1$
1%
#154501
1)
b00000000000000000000000011111110 -
#155000
0$
0%
#155500
1$
1%
#155501
0(
0)
b00000000000000000000000000000000 -
#156000
0$
0%
#156500
1$
1%
#156501
1(
#157000
0$
0%
#157500
1$
1%
#157501
1)
b00000000000000000000000011111110 -
#158000
0$
0%
#158500
1$
1%
#158501
0(
0)
b00000000000000000000000000000000 -
#159000
0$
0%
#159500
1$
1%
#159501
1(
#160000
0$
0%
#160500
1$
1%
#160501
1)
b00000000000000000000000011111110 -
#161000
0$
0%
#161500
1$
1%
#161501
0(
0)
b00000000000000000000000000000000 -
#162000
0$
0%
#162500
1$
1%
#162501
1(
#163000
0$
0%
#163500
1$
1%
#163501
1)
b00000000000000000000000011111110 -
#164000
0$
0%
#164500
1$
1%
#164501
0(
0)
b00000000000000000000000000000000 -
#165000
0$
0%
#165500
1$
1%
#165501
1(
#165600
00
#166000
0$
0%
#166500
1$
1%
#166501
1)
b00000000000000000000000011111110 -
#167000
0$
0%
#167500
1$
1%
#167501
0(
0)
b00000000000000000000000000000000 -
#168000
0$
0%
#168500
1$
1%
#168501
1(
#169000
0$
0%
#169500
1$
1%
#169501
1)
b00000000000000000000000011111110 -
#170000
0$
0%
#170500
1$
1%
#170501
0(
0)
b00000000000000000000000000000000 -
#171000
0$
0%
#171500
1$
1%
#171501
1(
#172000
0$
0%
#172500
1$
1%
#172501
1)
b00000000000000000000000011111110 -
#173000
0$
0%
#173500
1$
1%
#173501
0(
0)
b00000000000000000000000000000000 -
#173600
02
#174000
0$
0%
#174500
1$
1%
#174501
1(
#175000
0$
0%
#175500
1$
1%
#175501
1)
b00000000000000000000000011111110 -
#176000
0$
0%
#176500
1$
1%
#176501
0(
0)
b00000000000000000000000000000000 -
#177000
0$
0%
#177500
1$
1%
#177501
1(
#178000
0$
0%
#178500
1$
1%
#178501
1)
b00000000000000000000000011111110 -
#179000
0$
0%
#179500
1$
1%
#179501
0(
0)
b00000000000000000000000000000000 -
#179600
10
#180000
0$
0%
#180500
1$
1%
#180501
1(
#181000
0$
0%
#181500
1$
1%
#181501
1)
b00000000000000000000000011111110 -
#182000
0$
0%
#182500
1$
1%
#182501
0(
0)
b00000000000000000000000000000000 -
#183000
0$
0%
#183500
1$
1%
#183501
1(
#184000
0$
0%
#184500
1$
1%
#184501
1)
b00000000000000000000000011111110 -
#185000
0$
0%
#185500
1$
1%
#185501
0(
0)
b00000000000000000000000000000000 -
#186000
0$
0%
#186500
1$
1%
#186501
1(
#187000
0$
0%
#187500
1$
1%
#187501
1)
b00000000000000000000000011111110 -
#188000
0$
0%
#188500
1$
1%
#188501
0(
0)
b00000000000000000000000000000000 -
#189000
0$
0%
#189500
1$
1%
#189501
1(
#190000
0$
0%
#190500
1$
1%
#190501
1)
b00000000000000000000000011111110 -
#191000
0$
0%
#191500
1$
1%
#191501
0(
0)
b00000000000000000000000000000000 -
#192000
0$
0%
#192500
1$
1%
#192501
1(
#193000
0$
0%
#193500
1$
1%
#193501
1)
b00000000000000000000000011111110 -
#194000
0$
0%
#194500
1$
1%
#194501
0(
0)
b00000000000000000000000000000000 -
#195000
0$
0%
#195500
1$
1%
#195501
1(
#195600
00
#196000
0$
0%
#196500
1$
1%
#196501
1)
b00000000000000000000000011111110 -
#197000
0$
0%
#197500
1$
1%
#197501
0(
0)
b00000000000000000000000000000000 -
#198000
0$
0%
#198500
1$
1%
#198501
1(
#199000
0$
0%
#199500
1$
1%
#199501
1)
b00000000000000000000000011111110 -
#200000
0$
0%
#200500
1$
1%
#200501
0(
0)
b00000000000000000000000000000000 -
#201000
0$
0%
#201500
1$
1%
#201501
1(
#202000
0$
0%
#202500
1$
1%
#202501
1)
b00000000000000000000000011111110 -
#203000
0$
0%
#203500
1$
1%
#203501
0(
0)
b00000000000000000000000000000000 -
#204000
0$
0%
#204500
1$
1%
#204501
1(
#205000
0$
0%
#205500
1$
1%
#205501
1)
b00000000000000000000000011111110 -
#206000
0$
0%
#206500
1$
1%
#206501
0(
0)
b00000000000000000000000000000000 -
#207000
0$
0%
#207500
1$
1%
#207501
1(
#208000
0$
0%
#208500
1$
1%
#208501
1)
b00000000000000000000000011111110 -
#209000
0$
0%
#209500
1$
1%
#209501
0(
0)
b00000000000000000000000000000000 -
#209600
10
#210000
0$
0%
#210500
1$
1%
#210501
1(
#211000
0$
0%
#211500
1$
1%
#211501
1)
b00000000000000000000000011111110 -
#212000
0$
0%
#212500
1$
1%
#212501
0(
0)
b00000000000000000000000000000000 -
#213000
0$
0%
#213500
1$
1%
#213501
1(
#214000
0$
0%
#214500
1$
1%
#214501
1)
b00000000000000000000000011111110 -
#215000
0$
0%
#215500
1$
1%
#215501
0(
0)
b00000000000000000000000000000000 -
#216000
0$
0%
#216500
1$
1%
#216501
1(
#217000
0$
0%
#217500
1$
1%
#217501
1)
b00000000000000000000000011111110 -
#218000
0$
0%
#218500
1$
1%
#218501
0(
0)
b00000000000000000000000000000000 -
#219000
0$
0%
#219500
1$
1%
#219501
1(
#220000
0$
0%
#220500
1$
1%
#220501
1)
b00000000000000000000000011111110 -
#221000
0$
0%
#221500
1$
1%
#221501
0(
0)
b00000000000000000000000000000000 -
#222000
0$
0%
#222500
1$
1%
#222501
1(
#223000
0$
0%
#223500
1$
1%
#223501
1)
b00000000000000000000000011111110 -
#224000
0$
0%
#224500
1$
1%
#224501
0(
0)
b00000000000000000000000000000000 -
#225000
0$
0%
#225500
1$
1%
#225501
1(
#225600
00
#226000
0$
0%
#226500
1$
1%
#226501
1)
b00000000000000000000000011111110 -
#227000
0$
0%
#227500
1$
1%
#227501
0(
0)
b00000000000000000000000000000000 -
#228000
0$
0%
#228500
1$
1%
#228501
1(
#229000
0$
0%
#229500
1$
1%
#229501
1)
b00000000000000000000000011111110 -
#230000
0$
0%
#230500
1$
1%
#230501
0(
0)
b00000000000000000000000000000000 -
#231000
0$
0%
#231500
1$
1%
#231501
1(
#232000
0$
0%
#232500
1$
1%
#232501
1)
b00000000000000000000000011111110 -
#233000
0$
0%
#233500
1$
1%
#233501
0(
0)
b00000000000000000000000000000000 -
#234000
0$
0%
#234500
1$
1%
#234501
1(
#235000
0$
0%
#235500
1$
1%
#235501
1)
b00000000000000000000000011111110 -
#236000
0$
0%
#236500
1$
1%
#236501
0(
0)
b00000000000000000000000000000000 -
#237000
0$
0%
#237500
1$
1%
#237501
1(
#238000
0$
0%
#238500
1$
1%
#238501
1)
b00000000000000000000000011111110 -
#239000
0$
0%
#239500
1$
1%
#239501
0(
0)
b00000000000000000000000000000000 -
#239600
10
#240000
0$
0%
#240500
1$
1%
#240501
1(
#241000
0$
0%
#241500
1$
1%
#241501
1)
b00000000000000000000000011111110 -
#242000
0$
0%
#242500
1$
1%
#242501
0(
0)
b00000000000000000000000000000000 -
#243000
0$
0%
#243500
1$
1%
#243501
1(
#244000
0$
0%
#244500
1$
1%
#244501
1)
b00000000000000000000000011111110 -
#245000
0$
0%
#245500
1$
1%
#245501
0(
0)
b00000000000000000000000000000000 -
#246000
0$
0%
#246500
1$
1%
#246501
1(
#247000
0$
0%
#247500
1$
1%
#247501
1)
b00000000000000000000000011111110 -
#248000
0$
0%
#248500
1$
1%
#248501
0(
0)
b00000000000000000000000000000000 -
#249000
0$
0%
#249500
1$
1%
#249501
1(
#250000
0$
0%
#250500
1$
1%
#250501
1)
b00000000000000000000000011111110 -
#251000
0$
0%
#251500
1$
1%
#251501
0(
0)
b00000000000000000000000000000000 -
#252000
0$
0%
#252500
1$
1%
#252501
1(
#253000
0$
0%
#253500
1$
1%
#253501
1)
b00000000000000000000000011111110 -
#254000
0$
0%
#254500
1$
1%
#254501
0(
0)
b00000000000000000000000000000000 -
#255000
0$
0%
#255500
1$
1%
#255501
1(
#255600
00
#256000
0$
0%
#256500
1$
1%
#256501
1)
b00000000000000000000000011111110 -
#257000
0$
0%
#257500
1$
1%
#257501
0(
0)
b00000000000000000000000000000000 -
#258000
0$
0%
#258500
1$
1%
#258501
1(
#259000
0$
0%
#259500
1$
1%
#259501
1)
b00000000000000000000000011111110 -
#260000
0$
0%
#260500
1$
1%
#260501
0(
0)
b00000000000000000000000000000000 -
#261000
0$
0%
#261500
1$
1%
#261501
1(
#262000
0$
0%
#262500
1$
1%
#262501
1)
b00000000000000000000000011111110 -
#263000
0$
0%
#263500
1$
1%
#263501
0(
0)
b00000000000000000000000000000000 -
#264000
0$
0%
#264500
1$
1%
#264501
1(
#265000
0$
0%
#265500
1$
1%
#265501
1)
b00000000000000000000000011111110 -
#266000
0$
0%
#266500
1$
1%
#266501
0(
0)
b00000000000000000000000000000000 -
#267000
0$
0%
#267500
1$
1%
#267501
1(
#268000
0$
0%
#268500
1$
1%
#268501
1)
b00000000000000000000000011111110 -
#269000
0$
0%
#269500
1$
1%
#269501
0(
0)
b00000000000000000000000000000000 -
#269600
10
#270000
0$
0%
#270500
1$
1%
#270501
1(
#271000
0$
0%
#271500
1$
1%
#271501
1)
b00000000000000000000000011111110 -
#272000
0$
0%
#272500
1$
1%
#272501
0(
0)
b00000000000000000000000000000000 -
#273000
0$
0%
#273500
1$
1%
#273501
1(
#274000
0$
0%
#274500
1$
1%
#274501
1)
b00000000000000000000000011111110 -
#275000
0$
0%
#275500
1$
1%
#275501
0(
0)
b00000000000000000000000000000000 -
#276000
0$
0%
#276500
1$
1%
#276501
1(
#277000
0$
0%
#277500
1$
1%
#277501
1)
b00000000000000000000000011111110 -
#278000
0$
0%
#278500
1$
1%
#278501
0(
0)
b00000000000000000000000000000000 -
#279000
0$
0%
#279500
1$
1%
#279501
1(
#280000
0$
0%
#280500
1$
1%
#280501
1)
b00000000000000000000000011111110 -
#281000
0$
0%
#281500
1$
1%
#281501
0(
0)
b00000000000000000000000000000000 -
#282000
0$
0%
#282500
1$
1%
#282501
1(
#283000
0$
0%
#283500
1$
1%
#283501
1)
b00000000000000000000000011111110 -
#284000
0$
0%
#284500
1$
1%
#284501
0(
0)
b00000000000000000000000000000000 -
#285000
0$
0%
#285500
1$
1%
#285501
1(
#285600
00
#286000
0$
0%
#286500
1$
1%
#286501
1)
b00000000000000000000000011111110 -
#287000
0$
0%
#287500
1$
1%
#287501
0(
0)
b00000000000000000000000000000000 -
#288000
0$
0%
#288500
1$
1%
#288501
1(
#289000
0$
0%
#289500
1$
1%
#289501
1)
b00000000000000000000000011111110 -
#290000
0$
0%
#290500
1$
1%
#290501
0(
0)
b00000000000000000000000000000000 -
#291000
0$
0%
#291500
1$
1%
#291501
1(
#292000
0$
0%
#292500
1$
1%
#292501
1)
b00000000000000000000000011111110 -
#293000
0$
0%
#293500
1$
1%
#293501
0(
0)
b00000000000000000000000000000000 -
#293600
12
#294000
0$
0%
#294500
1$
1%
#294501
1(
#295000
0$
0%
#295500
1$
1%
#295501
1)
b00000000000000000000000011111110 -
#296000
0$
0%
#296500
1$
1%
#296501
0(
0)
b00000000000000000000000000000000 -
#297000
0$
0%
#297500
1$
1%
#297501
1(
#298000
0$
0%
#298500
1$
1%
#298501
1)
b00000000000000000000000011111110 -
#299000
0$
0%
#299500
1$
1%
#299501
0(
0)
b00000000000000000000000000000000 -
#299600
10
#300000
0$
0%
#300500
1$
1%
#300501
1(
#301000
0$
0%
#301500
1$
1%
#301501
1)
b00000000000000000000000011111110 -
#302000
0$
0%
#302500
1$
1%
#302501
0(
0)
b00000000000000000000000000000000 -
#303000
0$
0%
#303500
1$
1%
#303501
1(
#304000
0$
0%
#304500
1$
1%
#304501
1)
b00000000000000000000000011111110 -
#305000
0$
0%
#305500
1$
1%
#305501
0(
0)
b00000000000000000000000000000000 -
#306000
0$
0%
#306500
1$
1%
#306501
1(
#307000
0$
0%
#307500
1$
1%
#307501
1)
b00000000000000000000000011111110 -
#308000
0$
0%
#308500
1$
1%
#308501
0(
0)
b00000000000000000000000000000000 -
#309000
0$
0%
#309500
1$
1%
#309501
1(
#310000
0$
0%
#310500
1$
1%
#310501
1)
b00000000000000000000000011111110 -
#311000
0$
0%
#311500
1$
1%
#311501
0(
0)
b00000000000000000000000000000000 -
#312000
0$
0%
#312500
1$
1%
#312501
1(
#313000
0$
0%
#313500
1$
1%
#313501
1)
b00000000000000000000000011111110 -
#314000
0$
0%
#314500
1$
1%
#314501
0(
0)
b00000000000000000000000000000000 -
#314600
00
#315000
0$
0%
#315500
1$
1%
#315501
1(
#316000
0$
0%
#316500
1$
1%
#316501
1)
b00000000000000000000000011111110 -
#317000
0$
0%
#317500
1$
1%
#317501
0(
0)
b00000000000000000000000000000000 -
#318000
0$
0%
#318500
1$
1%
#318501
1(
#319000
0$
0%
#319500
1$
1%
#319501
1)
b00000000000000000000000011111110 -
#320000
0$
0%
#320500
1$
1%
#320501
0(
0)
b00000000000000000000000000000000 -
#321000
0$
0%
#321500
1$
1%
#321501
1(
#322000
0$
0%
#322500
1$
1%
#322501
1)
b00000000000000000000000011111110 -
#323000
0$
0%
#323500
1$
1%
#323501
0(
0)
b00000000000000000000000000000000 -
#324000
0$
0%
#324500
1$
1%
#324501
1(
#325000
0$
0%
#325500
1$
1%
#325501
1)
b00000000000000000000000011111110 -
#326000
0$
0%
#326500
1$
1%
#326501
0(
0)
b00000000000000000000000000000000 -
#327000
0$
0%
#327500
1$
1%
#327501
1(
#328000
0$
0%
#328500
1$
1%
#328501
1)
b00000000000000000000000011111110 -
#329000
0$
0%
#329500
1$
1%
#329501
0(
0)
b00000000000000000000000000000000 -
#330000
0$
0%
#330500
1$
1%
#330501
1(
#331000
0$
0%
#331500
1$
1%
#331501
1)
b00000000000000000000000011111110 -
#332000
0$
0%
#332500
1$
1%
#332501
0(
0)
b00000000000000000000000000000000 -
#333000
0$
0%
#333500
1$
1%
#333501
1(
#334000
0$
0%
#334500
1$
1%
#334501
1)
b00000000000000000000000011111110 -
#335000
0$
0%
#335500
1$
1%
#335501
0(
0)
b00000000000000000000000000000000 -
#336000
0$
0%
#336500
1$
1%
#336501
1(
#337000
0$
0%
#337500
1$
1%
#337501
1)
b00000000000000000000000011111110 -
#338000
0$
0%
#338500
1$
1%
#338501
0(
0)
b00000000000000000000000000000000 -
#339000
0$
0%
#339500
1$
1%
#339501
1(
#340000
0$
0%
#340500
1$
1%
#340501
1)
b00000000000000000000000011111110 -
#341000
0$
0%
#341500
1$
1%
#341501
0(
0)
b00000000000000000000000000000000 -
#342000
0$
0%
#342500
1$
1%
#342501
1(
#343000
0$
0%
#343500
1$
1%
#343501
1)
b00000000000000000000000011111110 -
#344000
0$
0%
#344500
1$
1%
#344501
0(
0)
b00000000000000000000000000000000 -
#345000
0$
0%
#345500
1$
1%
#345501
1(
#346000
0$
0%
#346500
1$
1%
#346501
1)
b00000000000000000000000011111110 -
#347000
0$
0%
#347500
1$
1%
#347501
0(
0)
b00000000000000000000000000000000 -
#348000
0$
0%
#348500
1$
1%
#348501
1(
#349000
0$
0%
#349500
1$
1%
#349501
1)
b00000000000000000000000011111110 -
#350000
0$
0%
#350500
1$
1%
#350501
0(
0)
b00000000000000000000000000000000 -
#351000
0$
0%
#351500
1$
1%
#351501
1(
#352000
0$
0%
#352500
1$
1%
#352501
1)
b00000000000000000000000011111110 -
#353000
0$
0%
#353500
1$
1%
#353501
0(
0)
b00000000000000000000000000000000 -
#354000
0$
0%
#354500
1$
1%
#354501
1(
#355000
0$
0%
#355500
1$
1%
#355501
1)
b00000000000000000000000011111110 -
#356000
0$
0%
#356500
1$
1%
#356501
0(
0)
b00000000000000000000000000000000 -
#357000
0$
0%
#357500
1$
1%
#357501
1(
#358000
0$
0%
#358500
1$
1%
#358501
1)
b00000000000000000000000011111110 -
#359000
0$
0%
#359500
1$
1%
#359501
0(
0)
b00000000000000000000000000000000 -
#360000
0$
0%
#360500
1$
1%
#360501
1(
#361000
0$
0%
#361500
1$
1%
#361501
1)
b00000000000000000000000011111110 -
#362000
0$
0%
#362500
1$
1%
#362501
0(
0)
b00000000000000000000000000000000 -
#363000
0$
0%
#363500
1$
1%
#363501
1(
#364000
0$
0%
#364500
1$
1%
#364501
1)
b00000000000000000000000011111110 -
#365000
0$
0%
#365500
1$
1%
#365501
0(
0)
b00000000000000000000000000000000 -
#366000
0$
0%
#366500
1$
1%
#366501
1(
#367000
0$
0%
#367500
1$
1%
#367501
1)
b00000000000000000000000011111110 -
#368000
0$
0%
#368500
1$
1%
#368501
0(
0)
b00000000000000000000000000000000 -
#369000
0$
0%
#369500
1$
1%
#369501
1(
#370000
0$
0%
