sim/proj.vcd
$date
	Sun May 11 16:44:22 2025
$end

$version
	Synopsys VCS version U-2023.03-SP2-8
$end

$timescale
	10ps
$end

$comment Csum: 1 0adf1965eeeecb39 $end


$scope module uvm_pkg $end
$var reg 32 ! UVM_UNBOUNDED_CONNECTIONS [31:0] $end
$var reg 1 " uvm_start_uvm_declarations $end
$var reg 32 # uvm_global_random_seed [31:0] $end
$upscope $end


$scope module $unit $end
$upscope $end


$scope module test_pkg $end
$upscope $end


$scope module top $end
$var reg 1 $ clk $end

$scope begin unnamed$$_vcs_1 $end
$upscope $end


$scope begin unnamed$$_vcs_0 $end
$upscope $end


$scope begin unnamed$$_vcs_2 $end
$upscope $end


$scope module intf $end
$var reg 1 % PCLK $end
$var reg 1 & PRESET $end
$var reg 5 ' PADDR [4:0] $end
$var reg 1 ( PSEL $end
$var reg 1 ) PENABLE $end
$var reg 1 * PWRITE $end
$var reg 32 + PWDATA [31:0] $end
$var reg 1 , PREADY $end
$var reg 32 - PRDATA [31:0] $end
$var reg 1 . PSLVERR $end
$var reg 1 / Interrupt $end
$var reg 1 0 SCL_drive $end
$var reg 1 1 SCL_result $end
$var reg 1 2 SDA_drive $end
$var reg 1 3 SDA_result $end
$upscope $end


$scope module DUT $end
$upscope $end

$upscope $end

$enddefinitions $end

#0
$dumpvars
1"
b11111111111111111111111111111111 !
b01000010000001111100110001000111 #
0$
bxxxxxxxxxxxxxxxxxxxxxxxxxxxxxxxx -
bxxxxxxxxxxxxxxxxxxxxxxxxxxxxxxxx +
bxxxxx '
0%
x/
x)
x,
x&
x(
x.
x*
x0
x1
x2
x3
$end
#500
1$
1%
#501
1&
b00000 '
0(
0)
0*
b00000000000000000000000000000000 +
01
03
1,
b00000000000000000000000000000000 -
0.
0/
10
12
#600
x/
x0
x2
#1000
0$
0%
#1500
1$
1%
0/
10
12
#1501
0&
#2000
0$
0%
#2500
1$
1%
#3000
0$
0%
#3500
1$
1%
#3501
1&
#4000
0$
0%
#4500
1$
1%
#4501
0&
#5000
0$
0%
#5500
1$
1%
#5501
b00100 '
1(
1*
#6000
0$
0%
#6500
1$
1%
#6501
1)
#7000
0$
0%
#7500
1$
1%
#7501
0(
0)
0*
#8000
0$
0%
#8500
1$
1%
#8501
b01000 '
1(
1*
b00000000000000000000000010000000 +
#9000
0$
0%
#9500
1$
1%
#9501
1)
#10000
0$
0%
#10500
1$
1%
#10501
0(
0)
0*
#11000
0$
0%
#11500
1$
1%
#11501
1(
1*
b00000000000000000000000011110000 +
#12000
0$
0%
#12500
1$
1%
#12501
1)
#13000
0$
0%
#13500
1$
1%
#13501
0(
0)
0*
#14000
0$
0%
#14500
1$
1%
#14501
b00000 '
1(
1*
b00000000000000000000000010101010 +
#15000
0$
0%
#15500
1$
1%
#15501
1)
#16000
0$
0%
#16500
1$
1%
#16501
0(
0)
0*
#17000
0$
0%
#17500
1$
1%
#17501
b01000 '
1(
1*
b00000000000000000000000011110000 +
#18000
0$
0%
#18500
1$
1%
#18501
1)
#19000
0$
0%
#19500
1$
1%
#19501
0(
0)
0*
#20000
0$
0%
#20500
1$
1%
#20501
b10000 '
1(
1*
b00000000000000000000000001111110 +
#21000
0$
0%
#21500
1$
1%
#21501
1)
#22000
0$
0%
#22500
1$
1%
#22501
0(
0)
0*
#23000
0$
0%
#23500
1$
1%
#23501
1(
1*
#24000
0$
0%
#24500
1$
1%
#24501
1)
#25000
0$
0%
#25500
1$
1%
#25501
0(
0)
0*
#26000
0$
0%
#26500
1$
1%
#27000
0$
0%
#27500
1$
1%
#28000
0$
0%
#28500
1$
1%
#29000
0$
0%
#29500
1$
1%
#30000
0$
0%
#30500
1$
1%
#30600
02
#31000
0$
0%
#31500
1$
1%
#32000
0$
0%
#32500
1$
1%
#33000
0$
0%
#33500
1$
1%
#34000
0$
0%
#34500
1$
1%
#35000
0$
0%
#35500
1$
1%
#36000
0$
0%
#36500
1$
1%
#37000
0$
0%
#37500
1$
1%
#37600
00
#38000
0$
0%
#38500
1$
1%
#39000
0$
0%
#39500
1$
1%
#40000
0$
0%
#40500
1$
1%
#41000
0$
0%
#41500
1$
1%
#42000
0$
0%
#42500
1$
1%
#43000
0$
0%
#43500
1$
1%
#44000
0$
0%
#44500
1$
1%
#45000
0$
0%
#45500
1$
1%
#46000
0$
0%
#46500
1$
1%
#47000
0$
0%
#47500
1$
1%
#48000
0$
0%
#48500
1$
1%
#49000
0$
0%
#49500
1$
1%
#50000
0$
0%
#50500
1$
1%
#51000
0$
0%
#51500
1$
1%
#52000
0$
0%
#52500
1$
1%
#52600
10
